Section 3: Neglected Identities
…
Joining with `by = join_by(sensitive_cat)`
Joining with `by = join_by(sensitive_standard)`
Joining with `by = join_by(sensitive_standard)`

sensitive_counts

# A tibble: 21 × 6
   sensitive_cat sensitive_standard_label sensitive_standard sensitive_cat_label
   <fct>         <fct>                    <chr>              <fct>              
 1 GSI           Sex                      sex                Gender and Sexual …
 2 GSI           Sexual orientation       sexual_orientation Gender and Sexual …
 3 GSI           Gender                   gender             Gender and Sexual …
 4 REO           Race                     race               Racial and Ethnic …
 5 REO           Color                    color              Racial and Ethnic …
 6 REO           Ethnic origin            ethnic_origin      Racial and Ethnic …
 7 REO           National origin          national_origin    Racial and Ethnic …
 8 REO           Language                 language           Racial and Ethnic …
 9 REO           National minority        national_minority  Racial and Ethnic …
10 SES           Social origin            social_origin      Socio-Economic Sta…
# ℹ 11 more rows
# ℹ 2 more variables: n_availability <int>, n_usage <int>
…
    sensitive_attribute_usage = sensitive_attribute_usage %>% 
      str_trim() %>% 
      str_replace_all(" ", "_"),
    sensitive_standard = sensitive_attribute_usage %>% 
      case_match(
        "BMI" ~ "other",
        "synth" ~ "other",
        "job" ~ "other",
        .default = sensitive_attribute_usage
      )
  ) %>% 
  filter(sensitive_standard != "other")
new_sensitive

# A tibble: 70 × 11
   title                    url   venue what_to_use keyword datasets our   spec 
   <chr>                    <chr> <chr> <chr>       <chr>   <chr>    <chr> <chr>
 1 Fair and Robust Estimat… http… ICML  dataset + … fair    Compas   COMP… tabu…
 2 Generalized Reductions:… http… ICML  dataset + … fair    Adult    Adult tabu…
 3 Generalized Reductions:… http… ICML  dataset + … fair    Bank     Bank… tabu…
 4 FAIRER: Fairness as Dec… http… ICML  dataset + … fair    Adult    Adult tabu…
 5 FAIRER: Fairness as Dec… http… ICML  dataset + … fair    German … Germ… tabu…
 6 FAIRER: Fairness as Dec… http… ICML  dataset + … fair    Folktab… <NA>  tabu…
 7 Superhuman Fairness      http… ICML  dataset + … fair    Adult    Adult tabu…
 8 Superhuman Fairness      http… ICML  dataset + … fair    Compas   COMP… tabu…
 9 On the Within-Group Fai… http… ICML  dataset + … fair    Folktab… <NA>  tabu…
10 On the Within-Group Fai… http… ICML  dataset + … fair    Folktab… <NA>  tabu…
# ℹ 60 more rows
# ℹ 3 more variables: sensitive_attribute_usage <chr>, task <chr>,
#   sensitive_standard <chr>
…
