Section 4: Omitted Populations
…
compas

# A tibble: 7,214 × 53
      id name   first last  compas_screening_date sex   dob          age age_cat
   <dbl> <chr>  <chr> <chr> <date>                <chr> <date>     <dbl> <chr>  
 1     1 migue… migu… hern… 2013-08-14            Male  1947-04-18    69 Greate…
 2     3 kevon… kevon dixon 2013-01-27            Male  1982-01-22    34 25 - 45
 3     4 ed ph… ed    philo 2013-04-14            Male  1991-05-14    24 Less t…
 4     5 marcu… marcu brown 2013-01-13            Male  1993-01-21    23 Less t…
 5     6 bouth… bout… pier… 2013-03-26            Male  1973-01-22    43 25 - 45
 6     7 marsh… mars… miles 2013-11-30            Male  1971-08-22    44 25 - 45
 7     8 edwar… edwa… ridd… 2014-02-19            Male  1974-07-23    41 25 - 45
 8     9 steve… stev… stew… 2013-08-30            Male  1973-02-25    43 25 - 45
 9    10 eliza… eliz… thie… 2014-03-16            Fema… 1976-06-03    39 25 - 45
10    13 bo br… bo    brad… 2013-11-04            Male  1994-06-10    21 Less t…
# ℹ 7,204 more rows
# ℹ 44 more variables: race <chr>, juv_fel_count <dbl>,
#   decile_score...12 <dbl>, juv_misd_count <dbl>, juv_other_count <dbl>,
#   priors_count...15 <dbl>, days_b_screening_arrest <dbl>, c_jail_in <dttm>,
#   c_jail_out <dttm>, c_case_number <chr>, c_offense_date <date>,
#   c_arrest_date <date>, c_days_from_compas <dbl>, c_charge_degree <chr>,
#   c_charge_desc <chr>, is_recid <dbl>, r_case_number <chr>, …
…
