Section 5: Opaque Preprocessing
…
    values = base_rates %>% 
      map(~ unlist(.))
  ) %>% 
  unnest(c(names, values)) %>% 
  select(-base_rates) %>% 
  mutate(
    names = names %>% 
      str_replace_all("', ", "-") %>% 
      str_remove_all("'") %>% 
      str_remove_all(",") %>% 
      str_trim()
  )
bank_rates

# A tibble: 25 × 3
   settings                                    names       values
   <chr>                                       <chr>        <int>
 1 ORG-017-DS-0-&-age-&-age >= 25 and age < 60 True         38927
 2 ORG-017-DS-0-&-age-&-age >= 25 and age < 60 False         2261
 3 ORG-017-DS-2-&-marital-&-none               married      27214
 4 ORG-017-DS-2-&-marital-&-none               single       12790
 5 ORG-017-DS-2-&-marital-&-none               divorced      5207
 6 ORG-017-DS-2-&-job-&-none                   blue-collar   9732
 7 ORG-017-DS-2-&-job-&-none                   management    9458
 8 ORG-017-DS-2-&-job-&-none                   technician    7597
 9 ORG-017-DS-2-&-job-&-none                   admin.        5171
10 ORG-017-DS-2-&-job-&-none                   services      4154
# ℹ 15 more rows
…
`summarise()` has grouped output by 'settings'. You can override using the
`.groups` argument.

bank_spread_stats

# A tibble: 70 × 22
# Groups:   settings [7]
   settings  seed mean_equalized_odds_difference sd_equalized_odds_difference
   <fct>    <dbl>                          <dbl>                        <dbl>
 1 a          115                         0.0241                       0.0120
 2 a         1563                         0.0147                       0.0121
 3 a         2412                         0.0420                       0.0187
 4 a         3032                         0.0513                       0.0246
 5 a         6371                         0.0237                       0.0183
 6 a         8060                         0.0163                       0.0117
 7 a         8811                         0.0204                       0.0149
 8 a         9192                         0.0925                       0.0207
 9 a         9401                         0.0214                       0.0107
10 a        80539                         0.0274                       0.0155
# ℹ 60 more rows
# ℹ 18 more variables: min_equalized_odds_difference <dbl>,
#   max_equalized_odds_difference <dbl>,
#   spread_equalized_odds_difference <dbl>,
#   mean_demographic_parity_difference <dbl>,
#   sd_demographic_parity_difference <dbl>,
#   min_demographic_parity_difference <dbl>, …
…
