Appendix B: Robustness
…
new_articles_raw <- load_papers_2023()

Rows: 64 Columns: 10
── Column specification ────────────────────────────────────────────────────────
Delimiter: ","
chr (10): title, url, venue, what_to_use, keyword, datasets, our, spec, sens...

ℹ Use `spec()` to retrieve the full column specification for this data.
ℹ Specify the column types or set `show_col_types = FALSE` to quiet this message.

new_articles_raw

# A tibble: 64 × 10
   title                    url   venue what_to_use keyword datasets our   spec 
   <chr>                    <chr> <chr> <chr>       <chr>   <chr>    <chr> <chr>
 1 Fair and Robust Estimat… http… ICML  dataset + … fair    Compas   COMP… tabu…
 2 Generalized Reductions:… http… ICML  dataset + … fair    Adult    Adult tabu…
 3 Generalized Reductions:… http… ICML  dataset + … fair    Bank     Bank… tabu…
 4 FAIRER: Fairness as Dec… http… ICML  dataset + … fair    Adult    Adult tabu…
 5 FAIRER: Fairness as Dec… http… ICML  dataset + … fair    German … Germ… tabu…
 6 FAIRER: Fairness as Dec… http… ICML  dataset + … fair    Folktab… <NA>  tabu…
 7 Superhuman Fairness      http… ICML  dataset + … fair    Adult    Adult tabu…
 8 Superhuman Fairness      http… ICML  dataset + … fair    Compas   COMP… tabu…
 9 On the Within-Group Fai… http… ICML  dataset + … fair    Folktab… <NA>  tabu…
10 Fair Neighbor Embedding  http… ICML  dataset + … fair    Adult    Adult tabu…
# ℹ 54 more rows
# ℹ 2 more variables: sensitive_attribute_usage <chr>, task <chr>
…
Analysis

Descriptives

counts_new <- new_articles %>% 
  count(dataset_name, dataset_id, sort = TRUE) %>% 
  mutate(
    frac = n / sum(n),
    rank = min_rank(-n)
  )
counts_new

# A tibble: 22 × 5
   dataset_name                       dataset_id     n   frac  rank
   <chr>                              <chr>      <int>  <dbl> <int>
 1 Adult                              ORG-006       13 0.203      1
 2 Folktables (new)                   <NA>          10 0.156      2
 3 COMPAS                             ORG-040        8 0.125      3
 4 Communities; Communities and Crime ORG-039        5 0.0781     4
 5 German; German Credit; Credit      ORG-072        4 0.0625     5
 6 Law_School                         ORG-109        4 0.0625     5
 7 Bank; Bank Marketing; Marketing    ORG-017        3 0.0469     7
 8 Student; Student Performance       ORG-178        2 0.0312     8
 9 default of credit card clients     ORG-043        2 0.0312     8
10 311chicago (new)                   <NA>           1 0.0156    10
# ℹ 12 more rows
…
  count(org_id, sort = TRUE) %>% 
  rename(dataset_id = org_id) %>% 
  left_join(
    dataset_info %>% 
      distinct(dataset_id, .keep_all = TRUE) %>% 
      select(dataset_id, dataset_name),
    by = "dataset_id"
  ) %>% 
  mutate(
    frac = n / sum(n),
    rank = min_rank(-n)
  )
counts_old

# A tibble: 36 × 5
   dataset_id     n dataset_name                         frac  rank
   <chr>      <int> <chr>                               <dbl> <int>
 1 ORG-006       84 Adult                              0.3        1
 2 ORG-040       69 COMPAS                             0.246      2
 3 ORG-072       26 German; German Credit; Credit      0.0929     3
 4 ORG-039       12 Communities; Communities and Crime 0.0429     4
 5 ORG-109       12 Law_School                         0.0429     4
 6 ORG-017        9 Bank; Bank Marketing; Marketing    0.0321     6
 7 ORG-184        7 generate_synthetic_data            0.025      7
 8 ORG-055        5 <NA>                               0.0179     8
 9 ORG-066        5 creditscore; FICO credit scores    0.0179     8
10 ORG-176        5 Stop, Question and Frisk Data      0.0179     8
# ℹ 26 more rows

counts_combined <- counts_new %>% 
  left_join(
    counts_old %>% 
      select(-dataset_name),
    by = "dataset_id",
    suffix = c("_new", "_old")
  ) %>%
  mutate(across(starts_with("frac_"), ~ scales::label_percent(accuracy = 0.1)(.)))
counts_combined

# A tibble: 22 × 8
   dataset_name       dataset_id n_new frac_new rank_new n_old frac_old rank_old
   <chr>              <chr>      <int> <chr>       <int> <int> <chr>       <int>
 1 Adult              ORG-006       13 20.3%           1    84 30.0%           1
 2 Folktables (new)   <NA>          10 15.6%           2    NA <NA>           NA
 3 COMPAS             ORG-040        8 12.5%           3    69 24.6%           2
 4 Communities; Comm… ORG-039        5 7.8%            4    12 4.3%            4
 5 German; German Cr… ORG-072        4 6.2%            5    26 9.3%            3
 6 Law_School         ORG-109        4 6.2%            5    12 4.3%            4
 7 Bank; Bank Market… ORG-017        3 4.7%            7     9 3.2%            6
 8 Student; Student … ORG-178        2 3.1%            8     1 0.4%           21
 9 default of credit… ORG-043        2 3.1%            8     4 1.4%           11
10 311chicago (new)   <NA>           1 1.6%           10    NA <NA>           NA
# ℹ 12 more rows
…
